<svg width="100" height="24" viewBox="0 0 100 24" fill="none" xmlns="http://www.w3.org/2000/svg">
<path d="M11.0297 21.0529C7.95595 21.0529 5.34691 20.0206 3.20263 17.956C1.06754 15.8822 0 13.4056 0 10.5265C0 7.6472 1.06754 5.17523 3.20263 3.11071C5.34691 1.0369 7.95595 0 11.0297 0C12.0881 0 13.0958 0.138874 14.0529 0.416622C15.01 0.694358 15.7969 1.02765 16.4134 1.41649C17.0393 1.80533 17.5822 2.19417 18.0423 2.583C18.5118 2.97185 18.8476 3.30514 19.0501 3.58288L19.3676 3.9856L16.1097 7.40178C16.0545 7.32772 15.9809 7.23517 15.8889 7.12413C15.7969 7.00373 15.5852 6.80002 15.2539 6.51301C14.9226 6.21675 14.5774 5.95758 14.2185 5.73539C13.8597 5.50395 13.3857 5.30025 12.7967 5.12439C12.2169 4.93918 11.6279 4.84661 11.0297 4.84661C9.41002 4.84661 8.06179 5.38818 6.98503 6.47142C5.90829 7.54529 5.36992 8.89706 5.36992 10.5265C5.36992 12.1559 5.90829 13.5122 6.98503 14.5953C8.06179 15.6785 9.41002 16.2201 11.0297 16.2201C11.7107 16.2201 12.332 16.1183 12.8933 15.9146C13.4547 15.7016 13.8505 15.4794 14.0806 15.248L14.4118 14.9425V12.8039H11.3058V9.38766H19.7955V17.0673C19.7219 17.1783 19.5977 17.3264 19.4228 17.5117C19.248 17.6875 18.8845 18.007 18.3322 18.4699C17.7801 18.9235 17.1865 19.3262 16.5515 19.678C15.9166 20.0298 15.102 20.3446 14.1081 20.6224C13.1143 20.9094 12.0881 21.0529 11.0297 21.0529ZM32.4956 11.3874C32.1183 11.2023 31.6489 11.105 31.0876 11.0958C30.1489 11.0958 29.4172 11.3874 28.8927 11.9707C28.3773 12.5447 28.1196 13.3918 28.1196 14.512V20.4835H23.3157V6.54086H28.1196V8.24896C28.2117 8.11932 28.3496 7.95271 28.5338 7.749C28.7271 7.53605 29.1503 7.25828 29.8037 6.9158C30.4663 6.57321 31.175 6.40197 31.9296 6.40197H32.4956V11.3874ZM46.6176 20.4835H41.8136V18.9143C41.7216 19.0439 41.5789 19.2151 41.3857 19.4281C41.2016 19.641 40.792 19.9187 40.1571 20.2613C39.5312 20.5946 38.8594 20.7612 38.1416 20.7612C36.8257 20.7612 35.7397 20.3771 34.8838 19.6086C34.0371 18.8309 33.6138 17.8912 33.6138 16.7895C33.6138 15.6508 33.9819 14.7018 34.7181 13.9427C35.4544 13.1834 36.4989 12.6604 37.8518 12.3734L41.8136 11.5263C41.8136 11.1467 41.6433 10.8134 41.3028 10.5265C40.9624 10.2395 40.4746 10.096 39.8395 10.096C39.2966 10.096 38.772 10.2162 38.2659 10.457C37.7689 10.6977 37.4146 10.9292 37.203 11.1513L36.8716 11.5263L34.4697 8.97112C34.5248 8.89706 34.5985 8.79977 34.6906 8.67949C34.7826 8.54984 35.008 8.33227 35.367 8.02677C35.7259 7.72127 36.1124 7.45274 36.5266 7.2213C36.9406 6.98062 37.4836 6.76305 38.1555 6.56859C38.8273 6.36488 39.5266 6.26309 40.2537 6.26309C42.1035 6.26309 43.6266 6.80927 44.8229 7.90175C46.0193 8.99423 46.6176 10.3043 46.6176 11.8318V20.4835ZM39.7016 17.0673C40.2813 17.0673 40.7782 16.8404 41.1924 16.3868C41.6065 15.9332 41.8136 15.3545 41.8136 14.6509V14.2203L39.7016 14.6509C39.3426 14.7249 39.039 14.8869 38.7904 15.137C38.542 15.3869 38.4177 15.6508 38.4177 15.9284C38.4269 16.6877 38.8548 17.0673 39.7016 17.0673ZM58.8068 15.6369C59.3499 15.0537 59.6213 14.3454 59.6213 13.5122C59.6213 12.679 59.3499 11.9753 58.8068 11.4013C58.2731 10.8181 57.6472 10.5265 56.9295 10.5265C56.2208 10.5265 55.595 10.8181 55.052 11.4013C54.5183 11.9753 54.2514 12.679 54.2514 13.5122C54.2514 14.3454 54.5183 15.0537 55.052 15.6369C55.595 16.2108 56.2208 16.4979 56.9295 16.4979C57.6472 16.4979 58.2731 16.2108 58.8068 15.6369ZM59.6213 8.24896V0.569373H64.4252V20.4835H59.6213V18.7754C59.5845 18.8309 59.5339 18.905 59.4694 18.9976C59.405 19.0809 59.2486 19.2382 59.0001 19.4697C58.7516 19.6919 58.4848 19.8956 58.1995 20.0808C57.9234 20.2567 57.5598 20.414 57.1089 20.5529C56.658 20.6918 56.1748 20.7612 55.6594 20.7612C53.9293 20.7612 52.4339 20.0761 51.173 18.7059C49.9214 17.3358 49.2956 15.6091 49.2956 13.526C49.2956 11.4337 49.9214 9.70241 51.173 8.33227C52.4339 6.95278 53.9293 6.26309 55.6594 6.26309C56.4509 6.26309 57.1779 6.4297 57.8405 6.76305C58.5032 7.09628 58.9633 7.42039 59.221 7.73513L59.6213 8.24896ZM81.667 14.7897H72.1971C72.2708 15.3359 72.5974 15.8313 73.1772 16.2757C73.7662 16.7108 74.5209 16.9284 75.4412 16.9284C76.021 16.9284 76.5685 16.8126 77.0839 16.5812C77.6085 16.3405 77.9858 16.1044 78.2159 15.873L78.5609 15.5119L80.673 18.6365C80.6178 18.6921 80.535 18.7707 80.4246 18.8725C80.3141 18.9652 80.0703 19.1364 79.693 19.3864C79.3157 19.6271 78.9153 19.8446 78.492 20.0391C78.0778 20.2242 77.5395 20.3909 76.8769 20.5391C76.2235 20.6872 75.5563 20.7612 74.8752 20.7612C72.7033 20.7612 70.8857 20.0576 69.4224 18.6504C67.9684 17.2339 67.2414 15.5212 67.2414 13.5122C67.2414 11.5217 67.9591 9.81818 69.3949 8.40171C70.8305 6.976 72.5653 6.26309 74.5992 6.26309C76.6329 6.26309 78.3401 6.94353 79.7205 8.30454C81.1102 9.65619 81.805 11.2995 81.805 13.2344L81.667 14.7897ZM76.159 10.5265C75.7449 10.1468 75.2249 9.95707 74.5992 9.95707C73.9733 9.95707 73.4533 10.1422 73.0392 10.5125C72.6251 10.8828 72.3444 11.3643 72.1971 11.9568H77.0011C76.8538 11.3735 76.5731 10.8968 76.159 10.5265Z" fill="#383838"/>
<path d="M89.3644 11.3796C88.8287 11.9527 88.561 12.6552 88.561 13.487C88.561 14.3188 88.8287 15.0259 89.3644 15.6082C89.9092 16.1812 90.5372 16.4677 91.2482 16.4677C91.9685 16.4677 92.5964 16.1812 93.1321 15.6082C93.6769 15.0259 93.9494 14.3188 93.9494 13.487C93.9494 12.6552 93.6769 11.9527 93.1321 11.3796C92.5964 10.7975 91.9685 10.5063 91.2482 10.5063C90.5372 10.5063 89.9092 10.7975 89.3644 11.3796ZM96.6504 8.42664C98.1557 9.86854 98.9083 11.5553 98.9083 13.487C98.9083 15.4187 98.1557 17.1101 96.6504 18.5611C95.1544 20.003 93.3537 20.7239 91.2482 20.7239C89.152 20.7239 87.3512 20.003 85.846 18.5611C84.3408 17.1101 83.5881 15.4187 83.5881 13.487C83.5881 11.5553 84.3408 9.86854 85.846 8.42664C87.3512 6.97563 89.152 6.25007 91.2482 6.25007C93.3537 6.25007 95.1544 6.97563 96.6504 8.42664Z" fill="#7BC96F"/>
<path d="M82.751 21.857H100V23.2825H82.751V21.857Z" fill="#7BC96F"/>
</svg>
